%YAML 1.1
%TAG !u! tag:unity3d.com,2011:
--- !u!114 &11400000
MonoBehaviour:
  m_ObjectHideFlags: 0
  m_CorrespondingSourceObject: {fileID: 0}
  m_PrefabInstance: {fileID: 0}
  m_PrefabAsset: {fileID: 0}
  m_GameObject: {fileID: 0}
  m_Enabled: 1
  m_EditorHideFlags: 0
  m_Script: {fileID: 11500000, guid: 4a75d5cde2bba584789320654f12e352, type: 3}
  m_Name: Revolver
  m_EditorClassIdentifier: 
  m_Sprite: {fileID: -1211920821, guid: 4709e9c385a6e5d4b8ef69a6713a1a28, type: 3}
  m_ammo: {fileID: 4934679070627109919, guid: ee21295f1c5e7d24086494362fe9350f, type: 3}
  _force: 0
  _bullets: 0
