{
    "name": "PJ_Input",
    "maps": [
        {
            "name": "Movement",
            "id": "cd26dd15-84d4-4672-8b96-e3820e119a1f",
            "actions": [
                {
                    "name": "Jump",
                    "type": "Button",
                    "id": "c11eee25-4a6c-4f13-bc49-e1574b3f4252",
                    "expectedControlType": "Button",
                    "processors": "",
                    "interactions": "",
                    "initialStateCheck": false
                },
                {
                    "name": "Move",
                    "type": "Value",
                    "id": "daa8885d-2a39-490e-8115-6ac2e75b9a9e",
                    "expectedControlType": "Vector2",
                    "processors": "",
                    "interactions": "",
                    "initialStateCheck": true
                },
                {
                    "name": "Shoot",
                    "type": "Button",
                    "id": "d4eb7f32-a46e-4394-bc51-80d278a548fe",
                    "expectedControlType": "Button",
                    "processors": "",
                    "interactions": "",
                    "initialStateCheck": false
                },
                {
                    "name": "Granada",
                    "type": "Button",
                    "id": "1629c1e5-03b4-4a2d-925b-3a090c3ad77b",
                    "expectedControlType": "Button",
                    "processors": "",
                    "interactions": "",
                    "initialStateCheck": false
                },
                {
                    "name": "Punch",
                    "type": "Button",
                    "id": "3276e0aa-be84-4451-adc1-727935651382",
                    "expectedControlType": "Button",
                    "processors": "",
                    "interactions": "",
                    "initialStateCheck": false
                },
                {
                    "name": "Jetpack",
                    "type": "Button",
                    "id": "c8306fc9-af0b-43f0-b871-61d85f806310",
                    "expectedControlType": "Button",
                    "processors": "",
                    "interactions": "",
                    "initialStateCheck": false
                }
            ],
            "bindings": [
                {
                    "name": "",
                    "id": "1745173f-d08d-41d5-add7-3bd67e270293",
                    "path": "<Keyboard>/space",
                    "interactions": "",
                    "processors": "",
                    "groups": "",
                    "action": "Jump",
                    "isComposite": false,
                    "isPartOfComposite": false
                },
                {
                    "name": "",
                    "id": "b543560c-269b-4f2f-b8da-ed1475a353f4",
                    "path": "<Keyboard>/e",
                    "interactions": "",
                    "processors": "",
                    "groups": "",
                    "action": "Shoot",
                    "isComposite": false,
                    "isPartOfComposite": false
                },
                {
                    "name": "",
                    "id": "0cc4b5fb-5b41-433a-8743-9cd79e4910a6",
                    "path": "<Keyboard>/g",
                    "interactions": "",
                    "processors": "",
                    "groups": "",
                    "action": "Granada",
                    "isComposite": false,
                    "isPartOfComposite": false
                },
                {
                    "name": "2D Vector",
                    "id": "0efb0929-c75a-4f98-9970-d9be8d6772d3",
                    "path": "2DVector",
                    "interactions": "",
                    "processors": "",
                    "groups": "",
                    "action": "Move",
                    "isComposite": true,
                    "isPartOfComposite": false
                },
                {
                    "name": "left",
                    "id": "d8bb844b-1bdc-4a82-bbfb-0f4227cc6b2f",
                    "path": "<Keyboard>/a",
                    "interactions": "",
                    "processors": "",
                    "groups": "",
                    "action": "Move",
                    "isComposite": false,
                    "isPartOfComposite": true
                },
                {
                    "name": "right",
                    "id": "8c9e7561-b366-4695-ae07-b72fa28202f8",
                    "path": "<Keyboard>/d",
                    "interactions": "",
                    "processors": "",
                    "groups": "",
                    "action": "Move",
                    "isComposite": false,
                    "isPartOfComposite": true
                },
                {
                    "name": "",
                    "id": "ed926f56-915d-4100-bf6c-343cd0a7218f",
                    "path": "<Keyboard>/p",
                    "interactions": "",
                    "processors": "",
                    "groups": "",
                    "action": "Punch",
                    "isComposite": false,
                    "isPartOfComposite": false
                },
                {
                    "name": "",
                    "id": "b1dc8b5a-a10f-420e-b307-d484cb613b86",
                    "path": "<Keyboard>/space",
                    "interactions": "",
                    "processors": "",
                    "groups": "",
                    "action": "Jetpack",
                    "isComposite": false,
                    "isPartOfComposite": false
                }
            ]
        }
    ],
    "controlSchemes": []
}